hydrology.res
NAME       IYRES   MORES       PSA      PVOL       ESA      EVOL       K   EVRSV     BR1     BR2     VOL_A_CCO FRAC_IN
pnd1           0       0      2.07   2.14245     2.277  2.356695       0     0.6       0       0       1     0.5
pnd2           0       0       2.7     3.645      2.97    4.0095       0     0.6       0       0       1     0.5
pnd3           0       0      2.07   2.14245     2.277  2.356695       0     0.6       0       0       1     0.5
pnd4           0       0      7.11  25.27605     7.821 27.803655       0     0.6       0       0       1     0.5
pnd5           0       0      2.16    2.3328     2.376   2.56608       0     0.6       0       0       1     0.5
pnd6           0       0      2.88    4.1472     3.168   4.56192       0     0.6       0       0       1     0.5
pnd7           0       0      1.71   1.46205     1.881  1.608255       0     0.6       0       0       1     0.5
pnd8           0       0      0.99   0.49005     1.089  0.539055       0     0.6       0       0       1     0.5
pnd9           0       0      1.44    1.0368     1.584   1.14048       0     0.6       0       0       1     0.5
pnd10          0       0      0.63   0.19845     0.693  0.218295       0     0.6       0       0       1     0.5
pnd11          0       0      5.58   15.5682     6.138  17.12502       0     0.6       0       0       1     0.5
pnd12          0       0      0.36    0.0648     0.396   0.07128       0     0.6       0       0       1     0.5
pnd13          0       0     15.66  122.6178    17.226 134.87958       0     0.6       0       0       1     0.5
pnd14          0       0      4.05   8.20125     4.455  9.021375       0     0.6       0       0       1     0.5
pnd15          0       0      2.52    3.1752     2.772   3.49272       0     0.6       0       0       1     0.5
pnd16          0       0      0.18    0.0162     0.198   0.01782       0     0.6       0       0       1     0.5
pnd17          0       0      3.06    4.6818     3.366   5.14998       0     0.6       0       0       1     0.5
pnd18          0       0      1.44    1.0368     1.584   1.14048       0     0.6       0       0       1     0.5
pnd19          0       0      1.44    1.0368     1.584   1.14048       0     0.6       0       0       1     0.5
pnd20          0       0      2.97   4.41045     3.267  4.851495       0     0.6       0       0       1     0.5
pnd21          0       0      1.17   0.68445     1.287  0.752895       0     0.6       0       0       1     0.5
pnd22          0       0     14.49 104.9800515.939115.         0       0       0       0       1     0.5
pnd23          0       0      0.36    0.0648     0.396   0.07128       0     0.6       0       0       1     0.5
pnd24          0       0      0.54    0.1458     0.594   0.16038       0     0.6       0       0       1     0.5
pnd25          0       0      3.15   4.96125     3.465  5.457375       0     0.6       0       0       1     0.5
pnd26          0       0      5.22   13.6242     5.742  14.98662       0     0.6       0       0       1     0.5
pnd27          0       0      0.27   0.03645     0.297  0.040095       0     0.6       0       0       1     0.5
pnd28          0       0       4.5    10.125      4.95   11.1375       0     0.6       0       0       1     0.5
pnd29          0       0      3.51   6.16005     3.861  6.776055       0     0.6       0       0       1     0.5
pnd30          0       0      2.34    2.7378     2.574   3.01158       0     0.6       0       0       1     0.5
pnd31          0       0      0.54    0.1458     0.594   0.16038       0     0.6       0       0       1     0.5
pnd32          0       0      7.47  27.90045     8.217 30.690495       0     0.6       0       0       1     0.5
pnd33          0       0      3.33   5.54445     3.663  6.098895       0     0.6       0       0       1     0.5
pnd34          0       0      1.35   0.91125     1.485  1.002375       0     0.6       0       0       1     0.5
pnd35          0       0      1.35   0.91125     1.485  1.002375       0     0.6       0       0       1     0.5
pnd36          0       0      3.51   6.16005     3.861  6.776055       0     0.6       0       0       1     0.5
pnd37          0       0      1.44    1.0368     1.584   1.14048       0     0.6       0       0       1     0.5
pnd38          0       0      2.25   2.53125     2.475  2.784375       0     0.6       0       0       1     0.5
pnd39          0       0       7.2     25.92      7.92    28.512       0     0.6       0       0       1     0.5
pnd40          0       0      2.79   3.89205     3.069  4.281255       0     0.6       0       0       1     0.5
pnd41          0       0      3.06    4.6818     3.366   5.14998       0     0.6       0       0       1     0.5
pnd42          0       0      4.86   11.8098     5.346  12.99078       0     0.6       0       0       1     0.5
pnd43          0       0      0.18    0.0162     0.198   0.01782       0     0.6       0       0       1     0.5
pnd44          0       0      1.26    0.7938     1.386   0.87318       0     0.6       0       0       1     0.5
pnd45          0       0      2.97   4.41045     3.267  4.851495       0     0.6       0       0       1     0.5
pnd46          0       0      2.34    2.7378     2.574   3.01158       0     0.6       0       0       1     0.5
pnd47          0       0      3.69   6.80805     4.059  7.488855       0     0.6       0       0       1     0.5
pnd48          0       0      1.98    1.9602     2.178   2.15622       0     0.6       0       0       1     0.5
pnd49          0       0      1.17   0.68445     1.287  0.752895       0     0.6       0       0       1     0.5
pnd50          0       0       1.8      1.62      1.98     1.782       0     0.6       0       0       1     0.5
pnd51          0       0      0.81   0.32805     0.891  0.360855       0     0.6       0       0       1     0.5
pnd52          0       0      3.06    4.6818     3.366   5.14998       0     0.6       0       0       1     0.5
pnd53          0       0      0.63   0.19845     0.693  0.218295       0     0.6       0       0       1     0.5
pnd54          0       0      0.36    0.0648     0.396   0.07128       0     0.6       0       0       1     0.5
pnd55          0       0      2.34    2.7378     2.574   3.01158       0     0.6       0       0       1     0.5
pnd56          0       0      3.15   4.96125     3.465  5.457375       0     0.6       0       0       1     0.5
pnd57          0       0      2.34    2.7378     2.574   3.01158       0     0.6       0       0       1     0.5
pnd58          0       0      2.61   3.40605     2.871  3.746655       0     0.6       0       0       1     0.5
pnd59          0       0       1.8      1.62      1.98     1.782       0     0.6       0       0       1     0.5
pnd60          0       0      1.35   0.91125     1.485  1.002375       0     0.6       0       0       1     0.5
pnd61          0       0       0.9     0.405      0.99    0.4455       0     0.6       0       0       1     0.5
pnd62          0       0      4.32    9.3312     4.752  10.26432       0     0.6       0       0       1     0.5
pnd63          0       0      1.26    0.7938     1.386   0.87318       0     0.6       0       0       1     0.5
pnd64          0       0      1.62    1.3122     1.782   1.44342       0     0.6       0       0       1     0.5
pnd65          0       0      1.17   0.68445     1.287  0.752895       0     0.6       0       0       1     0.5
pnd66          0       0      1.35   0.91125     1.485  1.002375       0     0.6       0       0       1     0.5
pnd67          0       0      1.53   1.17045     1.683  1.287495       0     0.6       0       0       1     0.5
pnd68          0       0      1.53   1.17045     1.683  1.287495       0     0.6       0       0       1     0.5
pnd69          0       0      2.61   3.40605     2.871  3.746655       0     0.6       0       0       1     0.5
pnd70          0       0      0.81   0.32805     0.891  0.360855       0     0.6       0       0       1     0.5
pnd71          0       0      2.16    2.3328     2.376   2.56608       0     0.6       0       0       1     0.5
pnd72          0       0      3.69   6.80805     4.059  7.488855       0     0.6       0       0       1     0.5
pnd73          0       0      2.61   3.40605     2.871  3.746655       0     0.6       0       0       1     0.5
pnd74          0       0      2.52    3.1752     2.772   3.49272       0     0.6       0       0       1     0.5
pnd75          0       0      2.07   2.14245     2.277  2.356695       0     0.6       0       0       1     0.5
pnd76          0       0      2.25   2.53125     2.475  2.784375       0     0.6       0       0       1     0.5
pnd77          0       0      1.26    0.7938     1.386   0.87318       0     0.6       0       0       1     0.5
pnd78          0       0      0.27   0.03645     0.297  0.040095       0     0.6       0       0       1     0.5
pnd79          0       0      3.78    7.1442     4.158   7.85862       0     0.6       0       0       1     0.5
pnd80          0       0      1.35   0.91125     1.485  1.002375       0     0.6       0       0       1     0.5
pnd81          0       0      2.16    2.3328     2.376   2.56608       0     0.6       0       0       1     0.5
pnd82          0       0      1.98    1.9602     2.178   2.15622       0     0.6       0       0       1     0.5
pnd83          0       0      1.44    1.0368     1.584   1.14048       0     0.6       0       0       1     0.5
pnd84          0       0       1.8      1.62      1.98     1.782       0     0.6       0       0       1     0.5
pnd85          0       0      2.61   3.40605     2.871  3.746655       0     0.6       0       0       1     0.5
pnd86          0       0      4.23   8.94645     4.653  9.841095       0     0.6       0       0       1     0.5
pnd87          0       0      1.53   1.17045     1.683  1.287495       0     0.6       0       0       1     0.5
pnd88          0       0      4.95  12.25125     5.445 13.476375       0     0.6       0       0       1     0.5
pnd89          0       0      3.51   6.16005     3.861  6.776055       0     0.6       0       0       1     0.5
pnd90          0       0      2.34    2.7378     2.574   3.01158       0     0.6       0       0       1     0.5
pnd91          0       0      2.07   2.14245     2.277  2.356695       0     0.6       0       0       1     0.5
pnd92          0       0      2.97   4.41045     3.267  4.851495       0     0.6       0       0       1     0.5
pnd93          0       0      2.52    3.1752     2.772   3.49272       0     0.6       0       0       1     0.5
pnd94          0       0      0.63   0.19845     0.693  0.218295       0     0.6       0       0       1     0.5
pnd95          0       0      1.17   0.68445     1.287  0.752895       0     0.6       0       0       1     0.5
pnd96          0       0      3.51   6.16005     3.861  6.776055       0     0.6       0       0       1     0.5
pnd97          0       0      7.02   24.6402     7.722  27.10422       0     0.6       0       0       1     0.5
pnd98          0       0      2.07   2.14245     2.277  2.356695       0     0.6       0       0       1     0.5
pnd99          0       0      1.53   1.17045     1.683  1.287495       0     0.6       0       0       1     0.5
pnd100         0       0      2.25   2.53125     2.475  2.784375       0     0.6       0       0       1     0.5
pnd101         0       0      1.35   0.91125     1.485  1.002375       0     0.6       0       0       1     0.5
pnd102         0       0      9.63  46.36845    10.593 51.005295       0     0.6       0       0       1     0.5
pnd103         0       0      1.62    1.3122     1.782   1.44342       0     0.6       0       0       1     0.5
pnd104         0       0      1.44    1.0368     1.584   1.14048       0     0.6       0       0       1     0.5
pnd105         0       0      0.27   0.03645     0.297  0.040095       0     0.6       0       0       1     0.5
pnd106         0       0      0.72    0.2592     0.792   0.28512       0     0.6       0       0       1     0.5
pnd107         0       0      1.89   1.78605     2.079  1.964655       0     0.6       0       0       1     0.5
pnd108         0       0      2.88    4.1472     3.168   4.56192       0     0.6       0       0       1     0.5
pnd109         0       0      0.45   0.10125     0.495  0.111375       0     0.6       0       0       1     0.5
pnd110         0       0      4.23   8.94645     4.653  9.841095       0     0.6       0       0       1     0.5
pnd111         0       0      5.58   15.5682     6.138  17.12502       0     0.6       0       0       1     0.5
pnd112         0       0      1.26    0.7938     1.386   0.87318       0     0.6       0       0       1     0.5
pnd113         0       0      3.51   6.16005     3.861  6.776055       0     0.6       0       0       1     0.5
pnd114         0       0      2.61   3.40605     2.871  3.746655       0     0.6       0       0       1     0.5
pnd115         0       0      4.77  11.37645     5.247 12.514095       0     0.6       0       0       1     0.5
pnd116         0       0      0.36    0.0648     0.396   0.07128       0     0.6       0       0       1     0.5
pnd117         0       0      2.43   2.95245     2.673  3.247695       0     0.6       0       0       1     0.5
pnd118         0       0      0.45   0.10125     0.495  0.111375       0     0.6       0       0       1     0.5
pnd119         0       0      2.61   3.40605     2.871  3.746655       0     0.6       0       0       1     0.5
pnd120         0       0      0.54    0.1458     0.594   0.16038       0     0.6       0       0       1     0.5
pnd121         0       0      1.44    1.0368     1.584   1.14048       0     0.6       0       0       1     0.5
pnd122         0       0       5.4     14.58      5.94    16.038       0     0.6       0       0       1     0.5
pnd123         0       0      3.87   7.48845     4.257  8.237295       0     0.6       0       0       1     0.5
pnd124         0       0       1.8      1.62      1.98     1.782       0     0.6       0       0       1     0.5
pnd125         0       0      1.35   0.91125     1.485  1.002375       0     0.6       0       0       1     0.5
pnd126         0       0       2.7     3.645      2.97    4.0095       0     0.6       0       0       1     0.5
pnd127         0       0       0.9     0.405      0.99    0.4455       0     0.6       0       0       1     0.5
pnd128         0       0      0.99   0.49005     1.089  0.539055       0     0.6       0       0       1     0.5
pnd129         0       0      0.45   0.10125     0.495  0.111375       0     0.6       0       0       1     0.5
pnd130         0       0      0.72    0.2592     0.792   0.28512       0     0.6       0       0       1     0.5
pnd131         0       0      5.04   12.7008     5.544  13.97088       0     0.6       0       0       1     0.5
pnd132         0       0      0.54    0.1458     0.594   0.16038       0     0.6       0       0       1     0.5
pnd133         0       0      6.12   18.7272     6.732  20.59992       0     0.6       0       0       1     0.5
pnd134         0       0      5.31  14.09805     5.841 15.507855       0     0.6       0       0       1     0.5
pnd135         0       0       4.5    10.125      4.95   11.1375       0     0.6       0       0       1     0.5
pnd136         0       0      1.08    0.5832     1.188   0.64152       0     0.6       0       0       1     0.5
pnd137         0       0      2.79   3.89205     3.069  4.281255       0     0.6       0       0       1     0.5
pnd138         0       0      4.23   8.94645     4.653  9.841095       0     0.6       0       0       1     0.5
pnd139         0       0      1.62    1.3122     1.782   1.44342       0     0.6       0       0       1     0.5
pnd140         0       0      0.63   0.19845     0.693  0.218295       0     0.6       0       0       1     0.5
pnd141         0       0      6.48   20.9952     7.128  23.09472       0     0.6       0       0       1     0.5
pnd142         0       0      0.18    0.0162     0.198   0.01782       0     0.6       0       0       1     0.5
pnd143         0       0       4.5    10.125      4.95   11.1375       0     0.6       0       0       1     0.5
pnd144         0       0      6.66   22.1778     7.326  24.39558       0     0.6       0       0       1     0.5
pnd145         0       0      0.09   0.00405     0.099  0.004455       0     0.6       0       0       1     0.5
pnd146         0       0      0.45   0.10125     0.495  0.111375       0     0.6       0       0       1     0.5
pnd147         0       0      6.93  24.01245     7.623 26.413695       0     0.6       0       0       1     0.5
pnd148         0       0      2.34    2.7378     2.574   3.01158       0     0.6       0       0       1     0.5
pnd149         0       0       1.8      1.62      1.98     1.782       0     0.6       0       0       1     0.5
pnd150         0       0      8.64   37.3248     9.504  41.05728       0     0.6       0       0       1     0.5
pnd151         0       0      0.72    0.2592     0.792   0.28512       0     0.6       0       0       1     0.5
pnd152         0       0      2.25   2.53125     2.475  2.784375       0     0.6       0       0       1     0.5
pnd153         0       0      0.54    0.1458     0.594   0.16038       0     0.6       0       0       1     0.5
pnd154         0       0      1.26    0.7938     1.386   0.87318       0     0.6       0       0       1     0.5
pnd155         0       0      0.45   0.10125     0.495  0.111375       0     0.6       0       0       1     0.5
pnd156         0       0      0.36    0.0648     0.396   0.07128       0     0.6       0       0       1     0.5
pnd157         0       0      1.26    0.7938     1.386   0.87318       0     0.6       0       0       1     0.5
pnd158         0       0      3.24    5.2488     3.564   5.77368       0     0.6       0       0       1     0.5
pnd159         0       0      0.99   0.49005     1.089  0.539055       0     0.6       0       0       1     0.5
pnd160         0       0      0.54    0.1458     0.594   0.16038       0     0.6       0       0       1     0.5
pnd161         0       0      1.53   1.17045     1.683  1.287495       0     0.6       0       0       1     0.5
pnd162         0       0      4.77  11.37645     5.247 12.514095       0     0.6       0       0       1     0.5
pnd163         0       0      1.17   0.68445     1.287  0.752895       0     0.6       0       0       1     0.5
pnd164         0       0      1.44    1.0368     1.584   1.14048       0     0.6       0       0       1     0.5
pnd165         0       0      1.35   0.91125     1.485  1.002375       0     0.6       0       0       1     0.5
pnd166         0       0      1.62    1.3122     1.782   1.44342       0     0.6       0       0       1     0.5
pnd167         0       0      0.45   0.10125     0.495  0.111375       0     0.6       0       0       1     0.5
pnd168         0       0     10.71  57.35205    11.781 63.087255       0     0.6       0       0       1     0.5
pnd169         0       0      1.44    1.0368     1.584   1.14048       0     0.6       0       0       1     0.5
pnd170         0       0      0.45   0.10125     0.495  0.111375       0     0.6       0       0       1     0.5
pnd171         0       0      5.58   15.5682     6.138  17.12502       0     0.6       0       0       1     0.5
pnd172         0       0      1.17   0.68445     1.287  0.752895       0     0.6       0       0       1     0.5
pnd173         0       0       3.6      6.48      3.96     7.128       0     0.6       0       0       1     0.5
pnd174         0       0      2.07   2.14245     2.277  2.356695       0     0.6       0       0       1     0.5
pnd175         0       0      1.35   0.91125     1.485  1.002375       0     0.6       0       0       1     0.5
pnd176         0       0      2.16    2.3328     2.376   2.56608       0     0.6       0       0       1     0.5
pnd177         0       0      5.94   17.6418     6.534  19.40598       0     0.6       0       0       1     0.5
pnd178         0       0       0.9     0.405      0.99    0.4455       0     0.6       0       0       1     0.5
pnd179         0       0      0.18    0.0162     0.198   0.01782       0     0.6       0       0       1     0.5
pnd180         0       0      3.24    5.2488     3.564   5.77368       0     0.6       0       0       1     0.5
pnd181         0       0      1.62    1.3122     1.782   1.44342       0     0.6       0       0       1     0.5
pnd182         0       0      0.18    0.0162     0.198   0.01782       0     0.6       0       0       1     0.5
pnd183         0       0      1.44    1.0368     1.584   1.14048       0     0.6       0       0       1     0.5
pnd184         0       0      0.45   0.10125     0.495  0.111375       0     0.6       0       0       1     0.5
pnd185         0       0      1.44    1.0368     1.584   1.14048       0     0.6       0       0       1     0.5
pnd186         0       0      0.81   0.32805     0.891  0.360855       0     0.6       0       0       1     0.5
pnd187         0       0       1.8      1.62      1.98     1.782       0     0.6       0       0       1     0.5
pnd188         0       0       2.7     3.645      2.97    4.0095       0     0.6       0       0       1     0.5
pnd189         0       0      1.26    0.7938     1.386   0.87318       0     0.6       0       0       1     0.5
pnd190         0       0      0.36    0.0648     0.396   0.07128       0     0.6       0       0       1     0.5
pnd191         0       0      1.89   1.78605     2.079  1.964655       0     0.6       0       0       1     0.5
pnd192         0       0      4.77  11.37645     5.247 12.514095       0     0.6       0       0       1     0.5
pnd193         0       0      5.04   12.7008     5.544  13.97088       0     0.6       0       0       1     0.5
pnd194         0       0      2.88    4.1472     3.168   4.56192       0     0.6       0       0       1     0.5
pnd195         0       0       0.9     0.405      0.99    0.4455       0     0.6       0       0       1     0.5
pnd196         0       0       2.7     3.645      2.97    4.0095       0     0.6       0       0       1     0.5
pnd197         0       0       0.9     0.405      0.99    0.4455       0     0.6       0       0       1     0.5
pnd198         0       0      1.26    0.7938     1.386   0.87318       0     0.6       0       0       1     0.5
pnd199         0       0      3.51   6.16005     3.861  6.776055       0     0.6       0       0       1     0.5
pnd200         0       0      1.53   1.17045     1.683  1.287495       0     0.6       0       0       1     0.5
pnd201         0       0      0.63   0.19845     0.693  0.218295       0     0.6       0       0       1     0.5
pnd202         0       0      0.72    0.2592     0.792   0.28512       0     0.6       0       0       1     0.5
pnd203         0       0      5.76   16.5888     6.336  18.24768       0     0.6       0       0       1     0.5
pnd204         0       0      1.17   0.68445     1.287  0.752895       0     0.6       0       0       1     0.5
pnd205         0       0      0.18    0.0162     0.198   0.01782       0     0.6       0       0       1     0.5
pnd206         0       0      4.41   9.72405     4.851 10.696455       0     0.6       0       0       1     0.5
pnd207         0       0       3.6      6.48      3.96     7.128       0     0.6       0       0       1     0.5
pnd208         0       0      1.35   0.91125     1.485  1.002375       0     0.6       0       0       1     0.5
pnd209         0       0       1.8      1.62      1.98     1.782       0     0.6       0       0       1     0.5
pnd210         0       0      0.72    0.2592     0.792   0.28512       0     0.6       0       0       1     0.5
pnd211         0       0      3.51   6.16005     3.861  6.776055       0     0.6       0       0       1     0.5
pnd212         0       0      2.16    2.3328     2.376   2.56608       0     0.6       0       0       1     0.5
pnd213         0       0      3.15   4.96125     3.465  5.457375       0     0.6       0       0       1     0.5
pnd214         0       0       1.8      1.62      1.98     1.782       0     0.6       0       0       1     0.5
pnd215         0       0       1.8      1.62      1.98     1.782       0     0.6       0       0       1     0.5
pnd216         0       0      6.21  19.28205     6.831 21.210255       0     0.6       0       0       1     0.5
pnd217         0       0      1.17   0.68445     1.287  0.752895       0     0.6       0       0       1     0.5
pnd218         0       0      4.59  10.53405     5.049 11.587455       0     0.6       0       0       1     0.5
pnd219         0       0      0.09   0.00405     0.099  0.004455       0     0.6       0       0       1     0.5
pnd220         0       0      0.36    0.0648     0.396   0.07128       0     0.6       0       0       1     0.5
pnd221         0       0      0.63   0.19845     0.693  0.218295       0     0.6       0       0       1     0.5
pnd222         0       0       0.9     0.405      0.99    0.4455       0     0.6       0       0       1     0.5
pnd223         0       0      2.88    4.1472     3.168   4.56192       0     0.6       0       0       1     0.5
pnd224         0       0      0.72    0.2592     0.792   0.28512       0     0.6       0       0       1     0.5
pnd225         0       0      1.71   1.46205     1.881  1.608255       0     0.6       0       0       1     0.5
pnd226         0       0      0.99   0.49005     1.089  0.539055       0     0.6       0       0       1     0.5
sre227         0       0      0.72    0.2592     0.792   0.28512       0     0.6       0       0       1     0.5
sre228         0       0      2.34    2.7378     2.574   3.01158       0     0.6       0       0       1     0.5
sre229         0       0      2.88    4.1472     3.168   4.56192       0     0.6       0       0       1     0.5
sre230         0       0      4.68   10.9512     5.148  12.04632       0     0.6       0       0       1     0.5
sre231         0       0     14.13  99.8284515.543109.         0       0       0       0       1     0.5
sre232         0       0      0.72    0.2592     0.792   0.28512       0     0.6       0       0       1     0.5
sre233         0       0      0.54    0.1458     0.594   0.16038       0     0.6       0       0       1     0.5
sre234         0       0       3.6      6.48      3.96     7.128       0     0.6       0       0       1     0.5
sre235         0       0      2.43   2.95245     2.673  3.247695       0     0.6       0       0       1     0.5
sre236         0       0      1.35   0.91125     1.485  1.002375       0     0.6       0       0       1     0.5
sre237         0       0      1.53   1.17045     1.683  1.287495       0     0.6       0       0       1     0.5
sre238         0       0     10.98   60.2802    12.078  66.30822       0     0.6       0       0       1     0.5
sre239         0       0      1.17   0.68445     1.287  0.752895       0     0.6       0       0       1     0.5
sre240         0       0      5.94   17.6418     6.534  19.40598       0     0.6       0       0       1     0.5
sre241         0       0      2.52    3.1752     2.772   3.49272       0     0.6       0       0       1     0.5
sre242         0       0      2.88    4.1472     3.168   4.56192       0     0.6       0       0       1     0.5
sre243         0       0      0.99   0.49005     1.089  0.539055       0     0.6       0       0       1     0.5
sre244         0       0     11.52   66.3552    12.672  72.99072       0     0.6       0       0       1     0.5
sre245         0       0      0.36    0.0648     0.396   0.07128       0     0.6       0       0       1     0.5
sre246         0       0      0.45   0.10125     0.495  0.111375       0     0.6       0       0       1     0.5
sre247         0       0      0.36    0.0648     0.396   0.07128       0     0.6       0       0       1     0.5
sre248         0       0      7.11  25.27605     7.821 27.803655       0     0.6       0       0       1     0.5
sre249         0       0      0.63   0.19845     0.693  0.218295       0     0.6       0       0       1     0.5
sre250         0       0      3.33   5.54445     3.663  6.098895       0     0.6       0       0       1     0.5
sre251         0       0      0.27   0.03645     0.297  0.040095       0     0.6       0       0       1     0.5
sre252         0       0      8.46   35.7858     9.306  39.36438       0     0.6       0       0       1     0.5
sre253         0       0      1.44    1.0368     1.584   1.14048       0     0.6       0       0       1     0.5
sre254         0       0      5.85  17.11125     6.435 18.822375       0     0.6       0       0       1     0.5
sre255         0       0      1.44    1.0368     1.584   1.14048       0     0.6       0       0       1     0.5
sre256         0       0      1.89   1.78605     2.079  1.964655       0     0.6       0       0       1     0.5
sre257         0       0      0.81   0.32805     0.891  0.360855       0     0.6       0       0       1     0.5
sre258         0       0      1.26    0.7938     1.386   0.87318       0     0.6       0       0       1     0.5
sre259         0       0     11.61  67.39605    12.771 74.135655       0     0.6       0       0       1     0.5
sre260         0       0     19.98  199.6002    21.978 219.56022       0     0.6       0       0       1     0.5
sre261         0       0      0.45   0.10125     0.495  0.111375       0     0.6       0       0       1     0.5
sre262         0       0      0.36    0.0648     0.396   0.07128       0     0.6       0       0       1     0.5
sre263         0       0      0.81   0.32805     0.891  0.360855       0     0.6       0       0       1     0.5
sre264         0       0      0.18    0.0162     0.198   0.01782       0     0.6       0       0       1     0.5
sre265         0       0      6.39  20.41605     7.029 22.457655       0     0.6       0       0       1     0.5
sre266         0       0       4.5    10.125      4.95   11.1375       0     0.6       0       0       1     0.5
sre267         0       0       7.2     25.92      7.92    28.512       0     0.6       0       0       1     0.5
sre268         0       0      1.89   1.78605     2.079  1.964655       0     0.6       0       0       1     0.5
sre269         0       0      2.52    3.1752     2.772   3.49272       0     0.6       0       0       1     0.5
sre270         0       0       1.8      1.62      1.98     1.782       0     0.6       0       0       1     0.5
sre271         0       0     12.33  76.01445    13.563 83.615895       0     0.6       0       0       1     0.5
sre272         0       0      2.43   2.95245     2.673  3.247695       0     0.6       0       0       1     0.5
sre273         0       0      1.62    1.3122     1.782   1.44342       0     0.6       0       0       1     0.5
sre274         0       0      0.54    0.1458     0.594   0.16038       0     0.6       0       0       1     0.5
sre275         0       0      1.62    1.3122     1.782   1.44342       0     0.6       0       0       1     0.5
sre276         0       0      1.08    0.5832     1.188   0.64152       0     0.6       0       0       1     0.5
sre277         0       0      6.12   18.7272     6.732  20.59992       0     0.6       0       0       1     0.5
sre278         0       0      0.81   0.32805     0.891  0.360855       0     0.6       0       0       1     0.5
sre279         0       0      7.74   29.9538     8.514  32.94918       0     0.6       0       0       1     0.5
sre280         0       0      2.25   2.53125     2.475  2.784375       0     0.6       0       0       1     0.5
sre281         0       0      3.24    5.2488     3.564   5.77368       0     0.6       0       0       1     0.5
sre282         0       0     17.91 160.3840519.701176.         0       0       0       0       1     0.5
sre283         0       0      1.62    1.3122     1.782   1.44342       0     0.6       0       0       1     0.5
sre284         0       0       7.2     25.92      7.92    28.512       0     0.6       0       0       1     0.5
sre285         0       0      1.26    0.7938     1.386   0.87318       0     0.6       0       0       1     0.5
sre286         0       0      1.98    1.9602     2.178   2.15622       0     0.6       0       0       1     0.5
pnd287         0       0      0.99   0.49005     1.089  0.539055       0     0.6       0       0       1     0.5
pnd288         0       0      0.99   0.49005     1.089  0.539055       0     0.6       0       0       1     0.5
pnd289         0       0      0.99   0.49005     1.089  0.539055       0     0.6       0       0       1     0.5
pnd290         0       0      0.99   0.49005     1.089  0.539055       0     0.6       0       0       1     0.5
pnd291         0       0      0.99   0.49005     1.089  0.539055       0     0.6       0       0       1     0.5
pnd292         0       0      0.99   0.49005     1.089  0.539055       0     0.6       0       0       1     0.5
pnd293         0       0      0.99   0.49005     1.089  0.539055       0     0.6       0       0       1     0.5
pnd294         0       0      0.99   0.49005     1.089  0.539055       0     0.6       0       0       1     0.5
pnd295         0       0      0.99   0.49005     1.089  0.539055       0     0.6       0       0       1     0.5
pnd296         0       0      0.99   0.49005     1.089  0.539055       0     0.6       0       0       1     0.5
pnd297         0       0      0.99   0.49005     1.089  0.539055       0     0.6       0       0       1     0.5
pnd298         0       0      0.99   0.49005     1.089  0.539055       0     0.6       0       0       1     0.5
pnd299         0       0      0.99   0.49005     1.089  0.539055       0     0.6       0       0       1     0.5
pnd300         0       0      0.99   0.49005     1.089  0.539055       0     0.6       0       0       1     0.5
pnd301         0       0      0.99   0.49005     1.089  0.539055       0     0.6       0       0       1     0.5
pnd302         0       0      0.99   0.49005     1.089  0.539055       0     0.6       0       0       1     0.5
pnd303         0       0      0.99   0.49005     1.089  0.539055       0     0.6       0       0       1     0.5
pnd304         0       0      0.99   0.49005     1.089  0.539055       0     0.6       0       0       1     0.5
pnd305         0       0      0.99   0.49005     1.089  0.539055       0     0.6       0       0       1     0.5
pnd306         0       0      0.99   0.49005     1.089  0.539055       0     0.6       0       0       1     0.5
pnd307         0       0      0.99   0.49005     1.089  0.539055       0     0.6       0       0       1     0.5
pnd308         0       0      0.99   0.49005     1.089  0.539055       0     0.6       0       0       1     0.5
pnd309         0       0      0.99   0.49005     1.089  0.539055       0     0.6       0       0       1     0.5
pnd310         0       0      0.99   0.49005     1.089  0.539055       0     0.6       0       0       1     0.5
pnd311         0       0      0.99   0.49005     1.089  0.539055       0     0.6       0       0       1     0.5
pnd312         0       0      0.99   0.49005     1.089  0.539055       0     0.6       0       0       1     0.5
pnd313         0       0      0.99   0.49005     1.089  0.539055       0     0.6       0       0       1     0.5
pnd314         0       0      0.99   0.49005     1.089  0.539055       0     0.6       0       0       1     0.5
pnd315         0       0      0.99   0.49005     1.089  0.539055       0     0.6       0       0       1     0.5
pnd316         0       0      0.99   0.49005     1.089  0.539055       0     0.6       0       0       1     0.5
pnd317         0       0      0.99   0.49005     1.089  0.539055       0     0.6       0       0       1     0.5
pnd318         0       0      0.99   0.49005     1.089  0.539055       0     0.6       0       0       1     0.5
pnd319         0       0      0.99   0.49005     1.089  0.539055       0     0.6       0       0       1     0.5
pnd320         0       0      0.99   0.49005     1.089  0.539055       0     0.6       0       0       1     0.5
pnd321         0       0      0.99   0.49005     1.089  0.539055       0     0.6       0       0       1     0.5
pnd322         0       0      0.99   0.49005     1.089  0.539055       0     0.6       0       0       1     0.5
pnd323         0       0      0.99   0.49005     1.089  0.539055       0     0.6       0       0       1     0.5
pnd324         0       0      0.99   0.49005     1.089  0.539055       0     0.6       0       0       1     0.5
pnd325         0       0      0.99   0.49005     1.089  0.539055       0     0.6       0       0       1     0.5
pnd326         0       0      0.99   0.49005     1.089  0.539055       0     0.6       0       0       1     0.5
pnd327         0       0      0.99   0.49005     1.089  0.539055       0     0.6       0       0       1     0.5
pnd328         0       0      0.99   0.49005     1.089  0.539055       0     0.6       0       0       1     0.5
pnd329         0       0      0.99   0.49005     1.089  0.539055       0     0.6       0       0       1     0.5
pnd330         0       0      0.99   0.49005     1.089  0.539055       0     0.6       0       0       1     0.5
pnd331         0       0      0.99   0.49005     1.089  0.539055       0     0.6       0       0       1     0.5
pnd332         0       0      0.99   0.49005     1.089  0.539055       0     0.6       0       0       1     0.5
pnd333         0       0      0.99   0.49005     1.089  0.539055       0     0.6       0       0       1     0.5
pnd334         0       0      0.99   0.49005     1.089  0.539055       0     0.6       0       0       1     0.5
pnd335         0       0      0.99   0.49005     1.089  0.539055       0     0.6       0       0       1     0.5
pnd336         0       0      0.99   0.49005     1.089  0.539055       0     0.6       0       0       1     0.5
pnd337         0       0      0.99   0.49005     1.089  0.539055       0     0.6       0       0       1     0.5
pnd338         0       0      0.99   0.49005     1.089  0.539055       0     0.6       0       0       1     0.5
pnd339         0       0      0.99   0.49005     1.089  0.539055       0     0.6       0       0       1     0.5
pnd340         0       0      0.99   0.49005     1.089  0.539055       0     0.6       0       0       1     0.5
pnd341         0       0      0.99   0.49005     1.089  0.539055       0     0.6       0       0       1     0.5
pnd342         0       0      0.99   0.49005     1.089  0.539055       0     0.6       0       0       1     0.5
pnd343         0       0      0.99   0.49005     1.089  0.539055       0     0.6       0       0       1     0.5
pnd344         0       0      0.99   0.49005     1.089  0.539055       0     0.6       0       0       1     0.5
pnd345         0       0      0.99   0.49005     1.089  0.539055       0     0.6       0       0       1     0.5
pnd346         0       0      0.99   0.49005     1.089  0.539055       0     0.6       0       0       1     0.5
pnd347         0       0      0.99   0.49005     1.089  0.539055       0     0.6       0       0       1     0.5
pnd348         0       0      0.99   0.49005     1.089  0.539055       0     0.6       0       0       1     0.5
pnd349         0       0      0.99   0.49005     1.089  0.539055       0     0.6       0       0       1     0.5
pnd350         0       0      0.99   0.49005     1.089  0.539055       0     0.6       0       0       1     0.5
pnd351         0       0      0.99   0.49005     1.089  0.539055       0     0.6       0       0       1     0.5
pnd352         0       0      0.99   0.49005     1.089  0.539055       0     0.6       0       0       1     0.5
pnd353         0       0      0.99   0.49005     1.089  0.539055       0     0.6       0       0       1     0.5
pnd354         0       0      0.99   0.49005     1.089  0.539055       0     0.6       0       0       1     0.5
pnd355         0       0      0.99   0.49005     1.089  0.539055       0     0.6       0       0       1     0.5
pnd356         0       0      0.99   0.49005     1.089  0.539055       0     0.6       0       0       1     0.5
pnd357         0       0      0.99   0.49005     1.089  0.539055       0     0.6       0       0       1     0.5
pnd358         0       0      0.99   0.49005     1.089  0.539055       0     0.6       0       0       1     0.5
pnd359         0       0      0.99   0.49005     1.089  0.539055       0     0.6       0       0       1     0.5
pnd360         0       0      0.99   0.49005     1.089  0.539055       0     0.6       0       0       1     0.5
pnd361         0       0      0.99   0.49005     1.089  0.539055       0     0.6       0       0       1     0.5
pnd362         0       0      0.99   0.49005     1.089  0.539055       0     0.6       0       0       1     0.5
pnd363         0       0      0.99   0.49005     1.089  0.539055       0     0.6       0       0       1     0.5
pnd364         0       0      0.99   0.49005     1.089  0.539055       0     0.6       0       0       1     0.5
pnd365         0       0      0.99   0.49005     1.089  0.539055       0     0.6       0       0       1     0.5
pnd366         0       0      0.99   0.49005     1.089  0.539055       0     0.6       0       0       1     0.5
pnd367         0       0      0.99   0.49005     1.089  0.539055       0     0.6       0       0       1     0.5
pnd368         0       0      0.99   0.49005     1.089  0.539055       0     0.6       0       0       1     0.5
pnd369         0       0      0.99   0.49005     1.089  0.539055       0     0.6       0       0       1     0.5
pnd370         0       0      0.99   0.49005     1.089  0.539055       0     0.6       0       0       1     0.5
pnd371         0       0      0.99   0.49005     1.089  0.539055       0     0.6       0       0       1     0.5
pnd372         0       0      0.99   0.49005     1.089  0.539055       0     0.6       0       0       1     0.5
pnd373         0       0      0.99   0.49005     1.089  0.539055       0     0.6       0       0       1     0.5
pnd374         0       0      0.99   0.49005     1.089  0.539055       0     0.6       0       0       1     0.5
pnd375         0       0      0.99   0.49005     1.089  0.539055       0     0.6       0       0       1     0.5
pnd376         0       0      0.99   0.49005     1.089  0.539055       0     0.6       0       0       1     0.5
pnd377         0       0      0.99   0.49005     1.089  0.539055       0     0.6       0       0       1     0.5
pnd378         0       0      0.99   0.49005     1.089  0.539055       0     0.6       0       0       1     0.5
pnd379         0       0      0.99   0.49005     1.089  0.539055       0     0.6       0       0       1     0.5
pnd380         0       0      0.99   0.49005     1.089  0.539055       0     0.6       0       0       1     0.5
pnd381         0       0      0.99   0.49005     1.089  0.539055       0     0.6       0       0       1     0.5
pnd382         0       0      0.99   0.49005     1.089  0.539055       0     0.6       0       0       1     0.5
pnd383         0       0      0.99   0.49005     1.089  0.539055       0     0.6       0       0       1     0.5
pnd384         0       0      0.99   0.49005     1.089  0.539055       0     0.6       0       0       1     0.5
pnd385         0       0      0.99   0.49005     1.089  0.539055       0     0.6       0       0       1     0.5
pnd386         0       0      0.99   0.49005     1.089  0.539055       0     0.6       0       0       1     0.5
pnd387         0       0      0.99   0.49005     1.089  0.539055       0     0.6       0       0       1     0.5
pnd388         0       0      0.99   0.49005     1.089  0.539055       0     0.6       0       0       1     0.5
pnd389         0       0      0.99   0.49005     1.089  0.539055       0     0.6       0       0       1     0.5
pnd390         0       0      0.99   0.49005     1.089  0.539055       0     0.6       0       0       1     0.5
pnd391         0       0      0.99   0.49005     1.089  0.539055       0     0.6       0       0       1     0.5
pnd392         0       0      0.99   0.49005     1.089  0.539055       0     0.6       0       0       1     0.5
pnd393         0       0      0.99   0.49005     1.089  0.539055       0     0.6       0       0       1     0.5
pnd394         0       0      0.99   0.49005     1.089  0.539055       0     0.6       0       0       1     0.5
pnd395         0       0      0.99   0.49005     1.089  0.539055       0     0.6       0       0       1     0.5
pnd396         0       0      0.99   0.49005     1.089  0.539055       0     0.6       0       0       1     0.5
pnd397         0       0      0.99   0.49005     1.089  0.539055       0     0.6       0       0       1     0.5
pnd398         0       0      0.99   0.49005     1.089  0.539055       0     0.6       0       0       1     0.5
pnd399         0       0      0.99   0.49005     1.089  0.539055       0     0.6       0       0       1     0.5
pnd400         0       0      0.99   0.49005     1.089  0.539055       0     0.6       0       0       1     0.5
pnd401         0       0      0.99   0.49005     1.089  0.539055       0     0.6       0       0       1     0.5
pnd402         0       0      0.99   0.49005     1.089  0.539055       0     0.6       0       0       1     0.5
pnd403         0       0      0.99   0.49005     1.089  0.539055       0     0.6       0       0       1     0.5
pnd404         0       0      0.99   0.49005     1.089  0.539055       0     0.6       0       0       1     0.5
pnd405         0       0      0.99   0.49005     1.089  0.539055       0     0.6       0       0       1     0.5
pnd406         0       0      0.99   0.49005     1.089  0.539055       0     0.6       0       0       1     0.5
pnd407         0       0      0.99   0.49005     1.089  0.539055       0     0.6       0       0       1     0.5
pnd408         0       0      0.99   0.49005     1.089  0.539055       0     0.6       0       0       1     0.5
pnd409         0       0      0.99   0.49005     1.089  0.539055       0     0.6       0       0       1     0.5
pnd410         0       0      0.99   0.49005     1.089  0.539055       0     0.6       0       0       1     0.5
pnd411         0       0      0.99   0.49005     1.089  0.539055       0     0.6       0       0       1     0.5
pnd412         0       0      0.99   0.49005     1.089  0.539055       0     0.6       0       0       1     0.5
pnd413         0       0      0.99   0.49005     1.089  0.539055       0     0.6       0       0       1     0.5
pnd414         0       0      0.99   0.49005     1.089  0.539055       0     0.6       0       0       1     0.5
pnd415         0       0      0.99   0.49005     1.089  0.539055       0     0.6       0       0       1     0.5
pnd416         0       0      0.99   0.49005     1.089  0.539055       0     0.6       0       0       1     0.5
pnd417         0       0      0.99   0.49005     1.089  0.539055       0     0.6       0       0       1     0.5
pnd418         0       0      0.99   0.49005     1.089  0.539055       0     0.6       0       0       1     0.5
pnd419         0       0      0.99   0.49005     1.089  0.539055       0     0.6       0       0       1     0.5
pnd420         0       0      0.99   0.49005     1.089  0.539055       0     0.6       0       0       1     0.5
pnd421         0       0      0.99   0.49005     1.089  0.539055       0     0.6       0       0       1     0.5
pnd422         0       0      0.99   0.49005     1.089  0.539055       0     0.6       0       0       1     0.5
pnd423         0       0      0.99   0.49005     1.089  0.539055       0     0.6       0       0       1     0.5
pnd424         0       0      0.99   0.49005     1.089  0.539055       0     0.6       0       0       1     0.5
pnd425         0       0      0.99   0.49005     1.089  0.539055       0     0.6       0       0       1     0.5
pnd426         0       0      0.99   0.49005     1.089  0.539055       0     0.6       0       0       1     0.5
pnd427         0       0      0.99   0.49005     1.089  0.539055       0     0.6       0       0       1     0.5
pnd428         0       0      0.99   0.49005     1.089  0.539055       0     0.6       0       0       1     0.5
pnd429         0       0      0.99   0.49005     1.089  0.539055       0     0.6       0       0       1     0.5
pnd430         0       0      0.99   0.49005     1.089  0.539055       0     0.6       0       0       1     0.5
pnd431         0       0      0.99   0.49005     1.089  0.539055       0     0.6       0       0       1     0.5
pnd432         0       0      0.99   0.49005     1.089  0.539055       0     0.6       0       0       1     0.5
pnd433         0       0      0.99   0.49005     1.089  0.539055       0     0.6       0       0       1     0.5
pnd434         0       0      0.99   0.49005     1.089  0.539055       0     0.6       0       0       1     0.5
pnd435         0       0      0.99   0.49005     1.089  0.539055       0     0.6       0       0       1     0.5
pnd436         0       0      0.99   0.49005     1.089  0.539055       0     0.6       0       0       1     0.5
pnd437         0       0      0.99   0.49005     1.089  0.539055       0     0.6       0       0       1     0.5
pnd438         0       0      0.99   0.49005     1.089  0.539055       0     0.6       0       0       1     0.5
pnd439         0       0      0.99   0.49005     1.089  0.539055       0     0.6       0       0       1     0.5
pnd440         0       0      0.99   0.49005     1.089  0.539055       0     0.6       0       0       1     0.5
pnd441         0       0      0.99   0.49005     1.089  0.539055       0     0.6       0       0       1     0.5
pnd442         0       0      0.99   0.49005     1.089  0.539055       0     0.6       0       0       1     0.5
