weir.res: Reservoir weir inputs - Water_LS2_Take2
WEIR_NAME  NUM_STEPS    DCHG_CO     ENG_CO    WEIR_WD     VEL_CO      DP_CO
shape001      24.000      1.000  15000.000      2.000      1.750      1.000
