reservoir.res: Reservoir properties - SB_LS1
    RES_NUMB    RES_NAME         RES_INI        RES_HYD      RELEASE           RES_SED       RES_NUT         RES_PST
           1 reservoir001        res_ini001     res_hyd001   corps_med_res     res_sed001    res_nut001      res_pst001
