management.lum: Management schedules - 2-stage ditch
    NAME  NUM_OPS       OP      MON      DAY     HUSC           OP_TYPE   OP_PLANT  OP_OVER      
   csoy    7  1    
              autoirr_str.8
                      fert        0        0    0.140           anh-nh3     null    200.0      FERTILIZER           
                      plnt        0        0    0.150              corn     null      0.0      plant CORN BEGIN
                      hvkl       10       30    1.200             grain     corn      0.0      HARVKILL
	              skip        0        0    0.000              null     null      0.0      SKIP_YEAR 
                      plnt        0        0    0.150              soyb     null      0.0      PLANT SOYBEANS
                      hvkl       10       30    1.200              soyb    grain      0.0      HARVKILL
	              skip        0        0    0.000              null     null      0.0      SKIP_YEAR 
   cana    0  0

  