nutrients.res: Reservoir nutrient inputs - asdf;lj
NAME           IRES1   IRES2 NSETLR1 NSETLR2 PSETLR1 PSETLR2   CHLAR  SECCIR   THETA_N   THETA_P   CONC_NMIN   CONC_PMIN
reservoir001       4      10    0.50    2.00    1.00    0.50    1.00    1.00     1.00      1.00         0.10        0.01
